The EMaC R Manual
…
summarize()
Create new variables summarizing the variables of an existing table

group_by()
takes an existing table and converts it into a grouped table where operations are performed “by group”

4.1.1 select()

For this particular experiment we have two independent variables of interest: visual_field and constrained_to; and four participant variables of interest: zTOWRE_Word,zTOWRE_Nonword, zSpelling_Dictation,zSpelling_Recogntion. What if we are only interested in these variables, and we don’t particularly need word level variables such as ortho_N, or phono_N. We can then select these variables.

For this particular function, the first argument is going to be the dataset of interest. the dataset for we will be selecting from is mydata. The following arguments are simply the columns you would like to keep.

dplyr::select(mydata, Participants, visual_field, constrained_to, zTOWRE_Word,zTOWRE_Nonword,   zSpelling_Dictation,zSpelling_Recogntion)

## # A tibble: 14,004 x 7
##    Participants visual_field constrained_to zTOWRE_Word zTOWRE_Nonword
##    <chr>        <chr>        <chr>                <dbl>          <dbl>
##  1 tg011        Fovea        A                    -1.75         0.0718
##  2 tg011        Parafovea    N                    -1.75         0.0718
##  3 tg011        Fovea        A                    -1.75         0.0718
##  4 tg011        Fovea        A                    -1.75         0.0718
##  5 tg011        Parafovea    T                    -1.75         0.0718
##  6 tg011        Fovea        N                    -1.75         0.0718
##  7 tg011        Parafovea    A                    -1.75         0.0718
##  8 tg011        Fovea        A                    -1.75         0.0718
##  9 tg011        Fovea        N                    -1.75         0.0718
## 10 tg011        Parafovea    N                    -1.75         0.0718
## # ... with 13,994 more rows, and 2 more variables: zSpelling_Dictation <dbl>,
## #   zSpelling_Recogntion <dbl>
…
